FlowJo ID,Sample ID
1,68932
2,68931
3,24841
4,24842
5,83231
6,83232
7,11261
8,11262
9,89482
10,89481
11,18261
12,18262
13,22891
14,22892
15,96551
16,96552
17,66681
18,66682
19,6151
20,6152
21,71011
22,71012
23,82931
24,82932
25,92321
26,92322
27,82311
28,82312
29,79601
30,79602
31,72891
32,72892
33,75301
34,75302
35,9431
36,9432
37,SO-0275-01
38,SO-0274-01
39,SO-0265-01
40,SO-0267-01
41,SO-0322-01
42,SO-0353-01
43,SO-0354-01
44,SO-0289-01
45,SO-0311-01
46,SO-0368-01
47,SO-0310-01
48,MI6_007
49,84421
50,84422
51,83021
52,83022
53,76291
54,76292
55,16251
56,16252
57,66481
58,66482
59,84361
60,84362
61,84571
62,84572
63,78461
64,78462
65,55131
66,55132
67,81201
68,81202
69,84411
70,84412
71,10091
72,10092
73,89291
74,89292
75,90191
76,90192
77,86101
78,86102
79,86391
80,86392
81,96441
82,96442
83,26771
84,26772
85,SO-0309-01
86,SO-0308-01
87,SO-0317-01
88,SO-0314-01
89,SO-0313-01
90,SO-0312-01
91,SO-0330-01
92,SO-0327-01
93,SO-0323-01
94,SO-0324-01
95,SO-0319-01
96,MI6_007
97,59781
98,59782
99,85951
100,85952
101,2831
102,2832
103,51071
104,51072
105,5521
106,5522
107,78991
108,78992
109,33691
110,33692
111,8581
112,8582
113,4811
114,4812
115,85091
116,85092
117,87181
118,87182
119,31
120,32
121,89461
122,89462
123,89501
124,89502
125,56191
126,56192
127,74681
128,74682
129,17451
130,17452
131,32391
132,32392
133,SO-0340-01
134,SO-0339-01
135,SO-0338-01
136,SO-0337-01
137,SO-0347-01
138,SO-0345-01
139,SO-0343-01
140,SO-0342-01
141,SO-0341-01
142,SO-0358-01
143,SO-0352-01
144,95962
145,59851
146,59852
147,72951
148,72952
149,85221
150,85222
151,1261
152,1262
153,6171
154,6172
155,84991
156,84992
157,34211
158,34212
159,64061
160,64062
161,72171
162,72172
163,89301
164,89302
165,79542
166,79541
167,14281
168,14282
169,68531
170,68532
171,80721
172,80722
173,30881
174,30882
175,76261
176,76262
177,87191
178,87192
179,20721
180,20722
181,SO-0351-01
182,SO-0350-01
183,SO-0372-01
184,SO-0369-01
185,SO-0359-01
186,SO-0360-01
187,SO-0129-01
188,SO-0127-01
189,SO-0154-01
190,SO-0226-01
191,SO-0361-01
192,MI6_007
193,87291
194,87292
195,77981
196,77982
197,34612
198,34611
199,87111
200,87112
201,2761
202,2762
203,56182
204,56181
205,83741
206,83742
207,50551
208,50552
209,64821
210,64822
211,51671
212,51672
213,87241
214,87242
215,33991
216,33992
217,78571
218,78572
219,72051
220,72052
221,22751
222,22752
223,81841
224,81842
225,6561
226,6562
227,86201
228,86202
229,SO-0208-01
230,SO-0187-01
231,SO-0194-01
232,SO-0197-01
233,SO-0176-01
234,SO-0177-01
235,SO-0268-01
236,SO-0195-01
237,SO-0416-01
238,SO-0250-01
239,SO-0178-01
240,96222
241,30591
242,30592
243,68081
244,68082
245,98511
246,98512
247,30291
248,30292
249,73511
250,73512
251,3751
252,3752
253,84081
254,84082
255,5371
256,5372
257,78791
258,78792
259,64812
260,64811
261,76131
262,76132
263,53931
264,53932
265,58981
266,58982
267,32071
268,32072
269,34291
270,34292
271,80761
272,80762
273,22721
274,22722
275,71251
276,71252
277,SO-0228-01
278,SO-0193-01
279,SO-0155-01
280,SO-0156-01
281,SO-0453-01
282,SO-0230-01
283,SO-0203-01
284,SO-0162-01
285,SO-0163-01
286,SO-0164-01
287,SO-0165-01
288,80852
289,23181
290,23182
291,50511
292,50512
293,79391
294,79392
295,78381
296,78382
297,76811
298,76812
299,83801
300,83802
301,30611
302,30612
303,92471
304,92472
305,90501
306,90502
307,81601
308,81602
309,5721
310,5722
311,57831
312,57832
313,22772
314,22771
315,73121
316,73122
317,9971
318,9972
319,77351
320,77352
321,86271
322,86272
323,65791
324,65792
325,SO-0161-01
326,SO-0168-01
327,SO-0167-01
328,SO-0171-01
329,SO-0229-01
330,SO-0172-01
331,SO-0261-01
332,SO-0264-01
333,SO-0201-01
334,SO-0243-01
335,SO-0173-01
336,MI6_007
337,4821
338,4822
339,511
340,512
341,78811
342,78812
343,81251
344,81252
345,95291
346,95292
347,72081
348,72082
349,64311
350,64312
351,67801
352,67802
353,23001
354,23002
355,90391
356,90392
357,2501
358,2502
359,86551
360,86552
361,59241
362,59242
363,96211
364,96212
365,32861
366,32862
367,54652
368,54651
369,16301
370,16302
371,51171
372,51172
373,SO-0174-01
374,SO-0430-01
375,SO-0443-01
376,SO-0181-01
377,SO-0182-01-C
378,SO-0328-01
379,SO-0192-01-F
380,SO-0301-01
381,SO-0266-01
382,SO-0419-01
383,SO-0277-01
384,85191
385,67831
386,67832
387,66351
388,66352
389,58101
390,58102
391,75251
392,75252
393,64591
394,64592
395,78771
396,78772
397,76151
398,76152
399,96671
400,96672
401,80671
402,80672
403,74701
404,74702
405,3701
406,3702
407,83871
408,83872
409,17771
410,17772
411,86461
412,86462
413,54501
414,54502
415,66881
416,66882
417,22451
418,22452
419,75591
420,75592
421,SO-0302-01
422,SO-0334-01
423,SO-0199-01
424,SO-0205-01
425,SO-0209-01
426,SO-0211-01
427,SO-0212-01
428,SO-0272-01
429,SO-0306-01
430,SO-0418-01
431,SO-0216-01
432,9711
433,79162
434,79161
435,70982
436,70981
437,5932
438,5931
439,59261
440,59262
441,751
442,752
443,66662
444,66661
445,86502
446,86501
447,65841
448,65842
449,72141
450,72142
451,54301
452,54302
453,51441
454,51442
455,88021
456,88022
457,95112
458,95111
459,20031
460,20032
461,14951
462,14952
463,78121
464,78122
465,81741
466,81742
467,10841
468,10842
469,SO-0213-01
470,SO-0237-01
471,SO-0241-01
472,SO-0295-01
473,SO-0281-01
474,SO-0251-01
475,SO-0253-01
476,SO-0320-01
477,SO-0254-01
478,SO-0269-01
479,SO-0259-01
480,89452
481,91401
482,91402
483,15521
484,15522
485,16121
486,16122
487,23581
488,23582
489,15731
490,15732
491,78101
492,78102
493,88071
494,88072
495,20631
496,20632
497,76071
498,76072
499,85001
500,85002
501,87151
502,87152
503,16691
504,16692
505,75511
506,75512
507,68341
508,68342
509,50301
510,50302
511,32761
512,32762
513,68841
514,68842
515,19851
516,19852
517,SO-0332-01
518,SO-0276-01
519,SO-0304-01
520,SO-0260-01
521,SO-0262-01
522,SO-0286-01
523,SO-0270-01
524,SO-0456-01
525,SO-0458-01
526,SO-0465-01
527,SO-0470-01
528,MI6_007
529,63821
530,63822
531,68091
532,68092
533,74121
534,74122
535,88031
536,88032
537,76081
538,76082
539,22652
540,22651
541,70431
542,70432
543,59711
544,59712
545,73531
546,73532
547,87731
548,87732
549,87951
550,87952
551,53911
552,53912
553,87841
554,87842
555,30651
556,30652
557,79281
558,79282
559,1551
560,1552
561,20831
562,20832
563,11671
564,11672
565,SO-0471-01
566,SO-0472-01
567,SO-0474-01
568,SO-0479-01
569,SO-0481-01
570,SO-0485-01
571,SO-0486-01
572,SO-0491-01
573,SO-0493-01
574,SO-0496-01
575,SO-0499-01
576,59662
577,16741
578,16742
579,14061
580,14062
581,59401
582,59402
583,23011
584,23012
585,22851
586,22852
587,87691
588,87692
589,87231
590,87232
591,70291
592,70292
593,23031
594,23032
595,8471
596,8472
597,19081
598,19082
599,81281
600,81282
601,20871
602,20872
603,10871
604,10872
605,87551
606,87552
607,87541
608,87542
609,74651
610,74652
611,91551
612,91552
613,SO-0500-01
614,SO-0501-01
615,SO-0503-01
616,SO-0506-01
617,SO-0510-01
618,SO-0517-01
619,SO-0519-01
620,SO-0520-01
621,SO-0522-01
622,SO-0525-01
623,SO-0523-01
624,63982
625,16221
626,16222
627,9211
628,9212
629,16631
630,16632
631,7111
632,7112
633,66641
634,66642
635,74201
636,74202
637,60911
638,60912
639,83821
640,83822
641,16421
642,16422
643,66081
644,66082
645,87301
646,87302
647,87371
648,87372
649,22031
650,22032
651,82951
652,82952
653,87411
654,87412
655,15661
656,15662
657,59071
658,59072
659,92312
660,92311
661,SO-0528-01
662,SO-0536-01
663,SO-0547-01
664,SO-0630-01
665,SO-0559-01
666,SO-0620-01
667,SO-0585-01
668,SO-0592-01
669,SO-0605-01
670,SO-0604-01
671,SO-0606-01
672,59762
673,88191
674,88192
675,22731
676,22732
677,79101
678,79102
679,88611
680,88612
681,88641
682,88642
683,63891
684,63892
685,96271
686,96272
687,60421
688,60422
689,86801
690,86802
691,88551
692,88552
693,88651
694,88652
695,79151
696,79152
697,88541
698,88542
1879,201
1880,201
701,96841
702,96842
703,88281
704,88282
705,11501
706,11502
707,14641
708,14642
709,SO-0607-01
710,SO-0611-01
711,SO-0612-01
712,SO-0624-01
713,SO-0628-01
714,SO-0273-02
715,SO-0390-01
716,SO-0386-01
717,SO-0384-01
718,SO-0381-01
719,SO-0379-01
720,MI6_007
721,88421
722,88422
723,71551
724,71552
725,58241
726,58242
727,78281
728,78282
729,64231
730,64232
731,88481
732,88482
733,76161
734,76162
735,1641
736,1642
737,78391
738,78392
739,52901
740,52902
741,88681
742,88682
743,84171
744,84172
745,86601
746,86602
747,94331
748,94332
749,15691
750,15692
751,66601
752,66602
753,96601
754,96602
755,79881
756,79882
757,SO-0406-01
758,SO-0405-01
759,SO-0394-01
760,SO-0393-01
761,SO-0428-01
762,SO-0423-01
763,SO-0422-01
764,SO-0420-01
765,SO-0417-01
766,SO-0435-01
767,SO-0432-01
768,74172
769,71471
770,71472
771,4661
772,4662
773,88351
774,88352
775,78981
776,78982
777,32511
778,32512
779,58861
780,58862
781,7611
782,7612
783,71241
784,71242
785,84751
786,84752
787,88471
788,88472
789,79081
790,79082
791,88151
792,88152
793,95491
794,95492
795,11981
796,11982
797,76911
798,76912
799,57791
800,57792
801,26641
802,26642
803,16941
804,16942
805,SO-0439-01
806,SO-0429-01
807,SO-0445-01
808,SO-0438-01
809,SO-0437-01
810,SO-0433-01
811,SO-0434-01
812,SO-0452-01
813,SO-0444-01
814,SO-0441-01
815,SO-0440-01
816,54052
817,60341
818,60342
819,87031
820,87032
821,79591
822,79592
823,88111
824,88112
825,99251
826,99252
827,74811
828,74812
829,86792
830,86791
831,88241
832,88242
833,96281
834,96282
835,2591
836,2592
837,87131
838,87132
839,51251
840,51252
841,59941
842,59942
843,66551
844,66552
845,88271
846,88272
847,86611
848,86612
849,17271
850,17272
851,76611
852,76612
853,SO-0455-01
854,SO-0451-01
855,SO-0450-01
856,SO-0447-01
857,SO-0446-01
858,S3-0003-01
859,S3-0004-01
860,S3-0007-01
861,01-PAN-130-01
862,S3-0017-01
863,S3-0019-01
864,2341
865,85201
866,85202
867,52051
868,52052
869,76521
870,76522
871,85321
872,85322
873,64441
874,64442
875,58292
876,58291
877,92811
878,92812
879,50132
880,50131
881,19531
882,19532
883,99421
884,99422
885,87331
886,87332
887,87121
888,87122
889,21731
890,21732
891,76411
892,76412
893,88041
894,88042
895,96541
896,96542
897,16001
898,16002
899,72881
900,72882
901,S3-0024-01
902,S3-0020-01
903,S3-0025-01
904,PAN-0030-01
905,S3-0027-01
906,S3-0029-01
907,S3-0030-01
908,S3-0035-01
909,S3-0036-01
910,S3-0031-02
911,S3-0071-01
912,MI6_007
913,87571
914,87572
915,85011
916,85012
917,55961
918,55962
919,54121
920,54122
921,281
922,282
923,82661
924,82662
925,22791
926,22792
927,5291
928,5292
929,16471
930,16472
931,33211
932,33212
933,4181
934,4182
935,78171
936,78172
937,54141
938,54142
939,4271
940,4272
941,51421
942,51422
943,26931
944,26932
1881,202
1882,202
947,99401
948,99402
949,S3-0078-01
950,S3-0124-01
951,S3-0126-01
952,S3-0042-01
953,S3-0129-01
954,S3-0134-01
955,S3-0136-01
956,S3-0137-01
957,S3-0144-01
958,S3-0149-01
959,S3-0150-01
960,87071
961,84041
962,84042
963,55011
964,55012
965,88101
966,88102
967,71841
968,71842
969,32741
970,32742
971,86811
972,86812
973,90661
974,90662
975,80601
976,80602
977,82131
978,82132
979,87321
980,87322
981,72481
982,72482
983,21081
984,21082
985,79221
986,79222
987,89011
988,89012
989,20701
990,20702
991,83381
992,83382
993,56211
994,56212
995,71661
996,71662
997,S3-0153-01
998,S3-0154-01
999,S3-0160-01
1000,S3-0162-01
1001,PAN-0033-01
1002,01-PAN-093-01
1003,S3-0015-01
1004,S3-0022-01
1005,S3-0163-01
1006,S3-0164-01
1007,S3-0166-01
1008,13092
1009,95351
1010,95352
1011,2571
1012,2572
1013,78431
1014,78432
1015,55851
1016,55852
1017,68971
1018,68972
1019,94681
1020,94682
1021,2691
1022,2692
1023,26111
1024,26112
1025,78851
1026,78852
1027,78901
1028,78902
1029,69921
1030,69922
1031,88861
1032,88862
1033,17731
1034,17732
1035,89001
1036,89002
1037,21961
1038,21962
1039,99361
2929,261
1041,71971
1042,71972
1043,88851
1044,88852
1045,S3-0169-01
1046,S3-0171-01
1047,S3-0173-01
1048,S3-0177-01
1049,S3-0179-01
1050,S3-0180-01
1051,S3-0184-01
1052,S3-0185-01
1053,S3-0186-01
1054,S3-0192-01
1055,S3-0194-01
1056,10531
1057,69911
1058,69912
1059,88882
1060,88881
1061,88971
1062,88972
1063,54341
1064,54342
1065,81291
1066,81292
1067,88941
1068,88942
1069,51461
1070,51462
1071,88291
1072,88292
1073,88931
1074,88932
1075,11001
1076,11002
1077,51851
1078,51852
1079,88911
1080,88912
1081,88792
1082,88791
1083,77631
1084,77632
1085,11441
1086,11442
1087,16881
1088,16882
1089,79741
1090,79742
1091,87041
1092,87042
1093,S3-0198-01
1094,S3-0205-01
1095,S3-0207-01
1096,S3-0210-01
1097,S3-0206-01
1098,S3-0214-01
1099,S3-0215-01
1100,S3-0218-01
1101,S3-0223-01
1102,S3-0232-01
1103,S3-0242-01
1104,MI6_007
1105,11011
1106,11012
1107,52841
1108,52842
1109,77961
1110,77962
1111,88591
1112,88592
1113,76742
1114,76741
1115,8391
1116,8392
1117,88601
1118,88602
1119,84061
1120,84062
1121,86241
1122,86242
1123,65351
1124,65352
1125,73871
1126,73872
1127,69591
1128,69592
1129,75941
1130,75942
1131,86911
1132,86912
1133,88771
1134,88772
1135,65291
1136,65292
1137,51351
1138,51352
1139,96691
1140,96692
1141,S3-0243-01
1142,S3-0238-02
1143,S3-0250-01
1144,S3-0257-01
1145,S3-0261-01
1146,S3-0262-01
1147,S3-0264-01
1148,S3-0269-01
1149,S3-0272-01
1150,S3-0274-01
1151,S3-0283-01
1152,75811
1153,83101
1154,83102
1155,69951
1156,69952
1157,83701
1158,83702
1159,88211
1160,88212
1161,90361
1162,90362
1163,69851
1164,69852
1165,85671
1166,85672
1167,88321
1168,88322
1169,88511
1170,88512
1171,67161
1172,67162
1173,68271
1174,68272
1175,88821
1176,88822
1177,84551
1178,84552
1179,74271
1180,74272
1181,88831
1182,88832
1183,88841
1184,88842
1185,59391
1186,59392
1187,73771
1188,73772
1189,S3-0285-01
1190,S3-0288-01
1191,S3-0290-01
1192,S3-0295-01
1193,S3-0399-01
1194,S3-0345-01
1195,S3-0465-01
1196,S3-0480-01
1197,S3-0328-01
1198,S3-0481-01
1199,S3-0365-01
1200,52801
1201,81791
1202,81792
1203,55291
1204,55292
1205,84031
1206,84032
1207,88201
1208,88202
1209,88761
1210,88762
1211,78271
1212,78272
1213,34301
1214,34302
1215,70511
1216,70512
1217,4321
1218,4322
1219,88811
1220,88812
1221,85741
1222,85742
1223,88721
1224,88722
1225,87801
1226,87802
1227,88711
1228,88712
1229,88501
1230,88502
1231,2101
1232,2102
1233,55531
1234,55532
1235,68111
1236,68112
1237,S3-0408-01
1238,S3-0362-01
1239,S3-0366-01
1240,S3-0367-01
1241,S3-0369-01
1242,S3-0402-01
1243,S3-0371-01
1244,S3-0498-01
1245,S3-0401-01
1246,S3-0449-01
1247,S3-0485-01
1248,92072
1249,9161
1250,9162
1251,58231
1252,58232
1253,83421
1254,83422
1255,76491
1256,76492
1257,85281
1258,85282
1259,88171
1260,88172
1261,54921
1262,54922
1263,84791
1264,84792
1265,88181
1266,88182
1267,88401
1268,88402
1269,86071
1270,86072
1271,53961
1272,53962
1273,53431
1274,53432
1275,55951
1276,55952
1277,51551
1278,51552
1279,84671
1280,84672
1281,52981
1282,52982
1283,57651
1284,57652
1285,S3-0377-01
1286,S3-0500-01
1287,S3-0391-01
1288,S3-0405-01
1289,S3-0297-01
1290,S3-0494-01
1291,S3-0300-01
1292,S3-0306-01
1293,S3-0308-01
1294,S3-0462-01
1295,S3-0321-01
1296,MI6_007
1297,25381
1298,25382
1299,60501
1300,60502
1301,59011
1302,59012
1303,18811
1304,18812
1305,24751
1306,24752
1307,34191
1308,34192
1309,17281
1310,17282
1311,33171
1312,33172
1313,34321
1314,34322
1315,77831
1316,77832
1317,10201
1318,10202
1319,84331
1320,84332
1321,58361
1322,58362
1323,3731
1324,3732
1325,22351
1326,22352
1327,89251
1328,89252
1329,22361
1330,22362
1331,89241
1332,89242
1333,S3-0314-01
1334,S3-0323-01
1335,S3-0475-01
1336,S3-0469-01
1337,PAN-176-01
1338,PAN-177-01
1339,S3-0421-01
1340,S3-0352-01
1341,S3-0470-01
1342,S3-0387-01
1343,S3-0353-01
1344,34512
1345,52871
1346,52872
1347,50601
1348,50602
1349,23931
1350,23932
1351,33141
1352,33142
1353,51331
1354,51332
1355,75661
1356,75662
1357,32871
1358,32872
1359,55651
1360,55652
1361,22921
1362,22922
1363,20431
1364,20432
1365,89311
1366,89312
1367,64831
1368,64832
1369,84801
1370,84802
1371,72941
1372,72942
1373,11301
1374,11302
1375,6281
1376,6282
1377,89181
1378,89182
1379,59021
1380,59022
1381,S3-0083-01
1382,S3-0486-01
1383,S3-0414-01
1384,S3-0063-02
1385,S3-0418-01
1386,S3-0419-01
1387,S3-0420-01
1388,S3-0429-01
1389,S3-0435-01
1390,S3-0436-01
1391,S3-0438-01
1392,99361
1393,11611
1394,11612
1395,88901
1396,88902
1397,12181
1398,12182
1399,84771
1400,84772
1401,9931
1402,9932
1403,52961
1404,52962
1405,34631
1406,34632
1407,76441
1408,76442
1409,87641
1410,87642
1411,84341
1412,84342
1413,3151
1414,3152
1415,73021
1416,73022
1417,6861
1418,6862
1419,1581
1420,1582
1421,89191
1422,89192
1423,14321
1424,14322
1425,51451
1426,51452
1427,11331
1428,11332
1429,S3-0488-01
1430,S3-0443-01
1431,S3-0446-01
1432,S3-0454-01
1433,S3-0456-01
1434,S3-0457-01
1435,S3-0489-01
1436,S3-0495-01
1437,S3-0487-02
1438,S3-0326-01
1439,S3-0431-01
1440,21331
2930,261
2927,262
2928,262
2799,781
2800,781
2801,782
2802,782
2939,971
2940,971
2941,972
2942,972
2791,1381
2792,1381
2793,1382
2794,1382
1803,1441
1804,1441
1951,1571
1952,1571
1953,1572
1954,1572
1873,1831
1874,1831
1875,1832
1876,1832
1877,1832
1878,1832
1752,2511
1753,2511
1754,2512
1755,2512
1933,3241
1934,3241
1935,3242
1475,76591
1476,76592
1477,S3-0507-01
1478,PAN-197-01
1479,PAN-216-01
1480,PAN-211-01
1481,PAN-212-01
1482,PAN-222-01
1483,S3-0458-01
1484,PAN-224-01
1485,S3-0493-01
1486,PAN-227-01
1487,PAN-234-01
1488,MI6_007
1936,3242
1781,4171
1782,4171
1783,4172
1784,4172
3037,4381
3038,4381
1469,4461
1470,4461
1471,4462
1472,4462
2943,4481
2944,4481
2945,4481
2946,4482
2947,4482
2948,4482
1969,4681
1970,4681
1971,4682
1972,4682
1825,5361
1826,5361
1827,5361
1756,5821
1757,5821
1758,5822
1759,5822
1453,7001
1454,7001
1455,7002
1456,7002
1497,9311
1498,9311
1523,81971
1524,81972
1525,PAN-233-01
1526,PAN-230-01
1527,PAN-237-01
1528,PAN-239-01
1529,S3-0496-01
1530,S3-0182-01
1531,S3-0315-02
1532,S3-0467-02
1533,S3-0045-01
1534,S3-0677-01
1535,S3-0679-01
1536,13651
1499,9312
1500,9312
2995,9372
2996,9372
2981,9551
2982,9551
2983,9551
2984,9552
2985,9552
2986,9552
2835,9591
2836,9591
2837,9592
2838,9592
2903,9651
2904,9651
2905,9652
2906,9652
1925,9911
1926,9911
1927,9912
1928,9912
2931,10641
2932,10641
2933,10642
2934,10642
1805,11231
1806,11231
1807,11231
1808,11232
1809,11232
1810,11232
1568,11851
1569,11851
1570,11852
1572,83071
1573,S3-0586-01
1574,S3-0588-01
1575,S3-0652-01
1576,S3-0682-01
1577,S3-0590-01
1578,S3-0531-02
1579,S3-0593-01
1580,S3-0594-01
1581,S3-0730-01
1582,S3-0596-01
1583,S3-0597-01
1584,83072
1571,11852
2987,12351
2988,12351
2989,12352
2990,12352
1545,13551
1546,13551
1547,13552
1548,13552
1929,13571
1930,13571
1931,13572
1932,13572
1489,15651
1490,15651
1491,15652
1492,15652
2849,15801
2850,15801
2851,15801
3079,16272
3080,16272
1977,17441
1978,17441
1979,17442
1980,17442
1519,19621
1520,19621
1521,19622
1522,19622
3003,19712
3004,19712
1973,20081
1974,20081
1975,20082
1620,15301
1621,S3-0598-01
1622,S3-0599-01
1623,S3-0521-01
1624,S3-0601-01
1625,S3-0574-01
1626,S3-0604-01
1627,S3-0632-02
1628,S3-0688-01
1629,S3-0619-01
1630,S3-0608-01
1631,S3-0579-01
1632,15302
1976,20082
1943,20311
1944,20311
1945,20312
1946,20312
2949,20551
2950,20551
2951,20551
2785,20751
2786,20751
2787,20752
2788,20752
2001,20851
2002,20851
2003,20852
2004,20852
1777,20891
1778,20891
1779,20892
1780,20892
1445,22121
1446,22121
1447,22122
1448,22122
1552,22741
1553,22741
1554,22742
1555,22742
1610,22991
1611,22991
1612,22991
1613,22991
1614,22991
1615,22992
1616,22992
1668,82991
1669,S3-0698-01
1670,S3-0611-01
1671,S3-0613-01
1672,S3-0615-01
1673,S3-0591-01
1674,S3-0660-01
1675,S3-0617-01
1676,S3-0743-01
1677,S3-0616-01
1678,S3-0625-01
1679,S3-0624-01
1680,MI6_007
1617,22992
1618,22992
1619,22992
1801,23561
1802,23561
1750,23562
1751,23562
1937,24081
1938,24081
1939,24082
1940,24082
1501,24191
1502,24191
1503,24191
1504,24192
1505,24192
1506,24192
2991,24651
2992,24651
3029,25362
3030,25362
1650,25862
1651,25862
1797,26882
1798,26882
1799,26882
1800,26882
2795,30161
2796,30161
2797,30162
2798,30162
2809,30311
2810,30311
3140,30312
1715,83471
1716,55512
1717,S3-0742-01
1718,S3-0622-01
1719,S3-0540-01
1720,S3-0626-01
1721,S3-0587-01
1722,S3-0631-01
1723,S3-0627-01
1724,S3-0537-02
1725,S3-0630-01
1726,S3-0639-01
1727,S3-0552-01
1728,83002
3154,30312
2883,30341
2884,30341
2885,30342
2886,30342
1738,30522
1739,30522
2852,30571
2853,30571
2854,30572
2855,30572
1457,30601
1458,30601
1459,30602
1460,30602
2899,30791
2900,30791
2901,30792
2902,30792
2811,32061
2812,32061
2813,32062
2814,32062
2839,32301
2840,32301
2841,32302
2842,32302
1559,32331
1560,32331
1561,32332
1562,32332
1517,32361
1518,32361
3049,32961
3050,32961
1764,7271
1765,S3-0553-01
1766,S3-0564-01
1767,S3-0662-01
1768,S3-0756-01
1769,S3-0567-01
1770,S3-0633-01
1771,S3-0523-02
1772,S3-0727-01
1773,S3-0637-01
1774,S3-0685-01
1775,S3-0693-01
1776,57261
1648,33181
1649,33181
2783,33192
2784,33192
1903,33251
1904,33251
1905,33252
1906,33252
3039,34151
3040,34151
1589,34371
1590,34371
1591,34372
1592,34372
1701,34491
1702,34491
1703,34492
1704,34492
1563,34511
1564,34511
2955,34651
2956,34651
2957,34651
2958,34652
2959,34652
2960,34652
2952,50291
2953,50291
2954,50291
2864,50661
2865,50661
2807,50662
2808,50662
1705,50712
1706,50712
3005,50841
1813,S3-0712-01
1814,S3-0528-02
1815,S3-0638-01
1816,S3-0519-02
1817,S3-0684-01
1818,S3-0640-01
1819,S3-0692-01
1820,S3-0634-01
1821,S3-0765-01
1822,S3-0557-01
1823,S3-0694-01
1824,33182
3006,50841
1997,50861
1998,50861
1999,50862
2000,50862
1887,50901
1888,50901
1889,50902
1890,50902
1791,50961
1792,50961
1793,50962
1794,50962
2907,51511
2908,51511
2909,51512
2910,51512
2803,51581
2804,51581
2805,51582
2806,51582
1891,51601
1892,51601
1893,51602
1894,51602
1736,51722
1737,51722
3051,51952
3052,51952
2856,52131
2857,52131
2858,52132
2859,52132
1858,70801
1859,70802
1860,59961
1861,S3-0560-01
1862,S3-0547-01
1863,S3-0565-01
1864,S3-0723-01
1865,S3-0538-01
1866,S3-0551-02
1867,S3-0566-01
1868,S3-0568-01
1869,S3-0569-01
1870,S3-0570-01
1871,S3-0573-01
1872,MI6_007
1537,52161
1538,52161
1539,52162
1540,52162
1795,52201
1796,52201
1565,52362
1566,52362
1567,52362
1735,52362
1733,52632
1734,52632
2789,52681
2790,52681
2815,52721
2816,52721
2817,52722
2818,52722
2843,52791
2844,52791
2845,52792
2846,52792
1465,53551
1466,53551
1467,53552
1468,53552
1899,11461
1900,11461
1901,11462
1902,11462
1729,53691
1730,53691
1731,53692
1732,53692
1907,12101
1908,12102
1909,S3-0645-01
1910,S3-0580-01
1911,S3-0646-01
1912,S3-0583-01
1913,S3-0771-01
1914,S3-0536-03
1915,S3-0649-01
1916,S3-0654-01
1917,S3-0642-01
1918,S3-0655-01
1919,S3-0664-01
1920,25861
1883,53861
1884,53861
1885,53862
1886,53862
1685,53871
1686,53871
1687,53872
1688,53872
2887,54001
2888,54001
2889,54002
2890,54002
1515,54051
1516,54051
3043,54221
3044,54221
3045,54222
3046,54222
2831,54551
2832,54551
2833,54552
2834,54552
1633,54901
1634,54901
1635,54902
1636,54902
1697,55211
1698,55211
1699,55212
1700,55212
1693,55471
1694,55471
1695,55472
1696,55472
1955,84021
1956,84022
1957,S3-0665-01
1958,S3-0668-01
1959,S3-0666-01
1960,S3-0670-01
1961,S3-0671-01
1962,S3-0672-01
1963,S3-0673-01
1964,S3-0676-01
1965,S3-0675-01
1966,S3-0707-01
1967,S3-0657-01
1968,3862
1644,55901
1645,55901
1646,55902
1647,55902
1507,57431
1508,57431
1509,57432
1510,57432
2999,58351
3000,58351
3001,58352
3002,58352
3057,58472
3058,58472
1989,58751
1990,58751
1991,58751
1992,58751
1993,58752
1994,58752
1995,58752
1996,58752
1836,58951
1837,58951
1838,58952
1839,58952
1845,59191
1846,59191
1847,59191
3007,59411
3008,59411
1947,59421
1948,59421
1949,59422
1950,59422
1689,59471
2005,S3-0695-01
2006,S3-0696-01
2007,S3-0697-01
2008,S3-0700-01
2009,S3-0701-01
2010,S3-0653-01
2011,S3-0704-01
2012,S3-0702-01
2013,S3-0709-01
2014,S3-0711-01
2015,S3-0714-01
2016,84521
2017,17761
2018,17762
2019,58711
2020,58712
2021,11351
2022,11352
2023,80261
2024,80262
2025,17671
2026,17672
2027,52581
2028,32421
2029,11191
2030,11192
2031,94461
2032,94462
2033,30181
2034,30182
2035,86091
2036,86092
2037,12461
2038,12462
2039,51971
2040,51972
2041,73271
2042,73272
2043,79031
2044,79032
2045,12741
2046,12742
2047,33501
2048,33502
2049,84491
2050,84492
2051,65381
2052,65382
2053,S3-0713-01
2054,S3-0715-01
2055,S3-0716-01
2056,S3-0717-01
2057,S3-0719-01
2058,S3-0720-01
2059,S3-0721-01
2060,S3-0728-01
2061,S3-0731-01
2062,S3-0745-01
2063,S3-0732-01
2064,MI6_007
2065,89051
2066,89052
2067,89091
2068,89092
2069,17911
2070,17912
2071,77451
2072,77452
2073,96811
2074,96812
2075,88951
2076,88952
2077,79941
2078,79942
2079,10821
2080,10822
2081,83241
2082,83242
2083,89031
2084,89032
2085,66021
2086,66022
2087,89061
2088,89062
2089,51481
2090,51482
2091,92721
2092,92722
2093,59891
2094,59892
2095,16581
2096,16582
2097,1592
2098,1591
2099,7252
2100,7251
2101,S3-0512-01
2102,S3-0733-01
2103,S3-0734-01
2104,S3-0736-01
2105,S3-0710-01
2106,S3-0741-01
2107,S3-0744-01
2108,S3-0746-01
2109,S3-0747-01
2110,S3-0748-01
2111,S3-0749-01
2112,76652
2113,3092
2114,3091
2115,5841
2116,5842
2117,23991
2118,23992
2119,57471
2120,57472
2121,80971
2122,80972
2123,53621
2124,53622
2125,94651
2126,94652
2127,52391
2128,52392
2129,57731
2130,57732
2131,3401
2132,3402
2133,58041
2134,58042
2135,1971
2136,1972
2137,60561
2138,60562
2139,55231
2140,55232
2141,94451
2142,94452
2143,55581
2144,55582
2145,55751
2146,55752
2147,23701
2148,23702
2149,S3-0527-01
2150,S3-0751-01
2151,S3-0752-01
2152,S3-0754-01
2153,S3-0757-01
2154,S3-0758-01
2155,S3-0759-01
2156,S3-0760-01
2157,S3-0762-01
2158,S3-0737-01
2159,S3-0764-01
2160,59621
2161,16971
2162,16972
2163,34221
2164,34222
2165,91321
2166,91322
2167,95611
2168,95612
2169,30141
2170,30142
2171,94511
2172,94512
2173,32031
2174,32032
2175,20321
2176,20322
2177,66761
2178,66762
2179,20121
2180,20122
2181,53351
2182,53352
2183,96731
2184,96732
2185,52451
2186,52452
2187,22261
2188,22262
2189,1191
2190,1192
2191,60181
2192,60182
2193,98001
2194,98002
2195,59831
2196,59832
2197,S3-0629-02
2198,S3-0767-01
2199,S3-0768-01
2200,S3-0769-01
2201,S3-0773-01
2202,S3-0775-01
2203,S3-0776-01
2204,S3-0778-01
2205,S3-0772-01
2206,S3-0780-01
2207,S3-0781-01
2208,58371
2209,59151
2210,59152
2211,30201
2212,30202
2213,99201
2214,99202
2215,64321
2216,64322
2217,71501
2218,71502
2219,32591
2220,32592
2221,92261
2222,92262
2223,33271
2224,33272
2225,7041
2226,7042
2227,30191
2228,30192
2229,52001
2230,52002
2231,14861
2232,14862
2233,24121
2234,24122
2235,52171
2236,52172
2237,51271
2238,51272
2239,23381
2240,23382
2241,51731
2242,51732
2243,1241
2244,1242
2245,S3-0783-01
2246,S3-0784-01
2247,S3-0729-02
2248,S3-0774-01
2249,S3-0779-01
2250,S3-0602-02
2251,SO-0017-01
2252,SO-0041-01
2253,SO-0010-01
2254,SO-0054-01
2255,SO-0045-01
2256,MI6_007
2257,4861
2258,4862
2259,52341
2260,52342
2261,30721
2262,30722
2263,58661
2264,58662
2265,58811
2266,58812
2267,73681
2268,73682
2269,60461
2270,60462
2271,311
2272,312
2273,411
2274,412
2275,11711
2276,11712
2277,21281
2278,21282
2279,21441
2280,21442
2281,50971
2282,50972
2283,51401
2284,51402
2285,52281
2286,52282
2287,53291
2288,53292
2289,58821
2290,58822
2291,59091
2292,59092
2293,SO-0072-01
2294,SO-0055-01
2295,SO-0070-01
2296,SO-0076-01
2297,SO-0081-01
2298,SO-0074-01
2299,SO-0067-01
2300,SO-0078-01
2301,SO-0028-01
2302,SO-0082-01
2303,SO-0052-01
2304,66561
2305,59871
2306,59872
2307,65901
2308,65902
2309,70821
2310,70822
2311,79621
2312,79622
2313,96982
2314,96981
2315,99281
2316,99282
2317,61
2318,62
2319,591
2320,592
2321,731
2322,732
2323,1161
2324,1162
2325,4231
2326,4232
2327,4631
2328,4632
2329,8571
2330,8572
2331,9831
2332,9832
2333,21191
2334,21192
2335,57101
2336,57102
2337,57351
2338,57352
2339,59451
2340,59452
2341,SO-0048-01
2342,SO-0027-01
2343,S3-0918-01
2344,S3-0964-01
2345,S3-0790-01
2346,S3-0979-01
2347,S3-0919-01
2348,S3-0800-01
2349,S3-0931-01
2350,S3-0928-01
2351,S3-0802-01
2352,95041
2353,59491
2354,59492
2355,74932
2356,74931
2357,92291
2358,92292
2359,98831
2360,98832
2361,1371
2362,1372
2363,9521
2364,9522
2365,30412
2366,30411
2367,30801
2368,30802
2369,32212
2370,32211
2371,53611
2372,53612
2373,54521
2374,54522
2375,55911
2376,55912
2377,59031
2378,59032
2379,64731
2380,64732
2381,66032
2382,66031
2383,66651
2384,66652
2385,71381
2386,71382
2387,71721
2388,71722
2389,S3-0965-01
2390,S3-0910-01
2391,S3-0887-01
2392,S3-0834-01
2393,S3-0803-01
2394,S3-0966-01
2395,S3-0841-01
2396,S3-0811-01
2397,S3-0813-01
2398,S3-0842-01
2399,S3-0785-01
2400,60252
2401,77461
2402,77462
2403,91181
2404,91182
2405,95501
2406,95502
2407,2631
2408,2632
2409,21291
2410,21292
2411,30561
2412,30562
2413,34441
2414,34442
2415,51141
2416,51142
2417,51621
2418,51622
2419,52091
2420,52092
2421,52912
2422,52911
2423,53811
2424,53812
2425,56061
2426,56062
2427,371
2428,372
2429,381
2430,382
2431,431
2432,432
2433,461
2434,462
2435,2491
2436,2492
2437,S3-0789-01
2438,S3-0812-01
2439,S3-0792-01
2440,S3-0788-01
2441,S3-0806-01
2442,S3-0804-01
2443,S3-0805-01
2444,S3-0815-01
2445,S3-0814-01
2446,S3-0807-01
2447,S3-0808-01
2448,MI6_007
2449,15821
2450,15822
2451,21431
2452,21432
2453,30211
2454,30212
2455,52211
2456,52212
2457,54171
2458,54172
2459,57671
2460,57672
2461,60591
2462,60592
2463,93951
2464,93952
2465,2271
2466,2272
2467,4421
2468,4422
2469,14671
2470,14672
2471,24052
2472,24051
2473,30051
2474,30052
2475,30821
2476,30822
2477,32151
2478,32152
2479,32311
2480,32312
2481,33381
2482,33382
2483,S3-0816-01
2484,S3-0795-01
2485,S3-0819-01
2486,S3-0797-01
2487,S3-0820-01
2488,S3-0809-01
2489,S3-0824-01
2490,S3-0825-01
2491,S3-0826-01
2492,S3-0827-01
2493,S3-0828-01
2494,81271
2495,33671
2496,33672
2497,34551
2498,34552
2499,53001
2500,53002
2501,58691
2502,58692
2503,58961
2504,58962
2505,59381
2506,59382
2507,92101
2508,92102
2509,95671
2510,95672
2511,98811
2512,98812
2513,1891
2514,1892
2515,14891
2516,14892
2517,15461
2518,15462
2519,32921
2520,32922
2521,51871
2522,51872
2523,52762
2524,52761
2525,53041
2526,53042
2527,54201
2528,54202
2529,54631
2530,54632
2531,S3-0830-01
2532,S3-0831-01
2533,S3-0833-01
2534,S3-0798-01
2535,S3-0799-01
2536,S3-0822-01
2537,S3-0821-01
2538,S3-0836-01
2539,S3-0837-01
2540,S3-0844-01
2541,S3-0845-01
2542,50711
2543,59371
2544,59372
2545,59911
2546,59912
2547,81161
2548,81162
2549,90311
2550,90312
2551,94191
2552,94192
2553,30221
2554,30222
2555,33761
2556,33762
2557,52461
2558,52462
2559,55331
2560,55332
2561,56081
2562,56082
2563,58481
2564,58482
2565,65861
2566,65862
2567,66791
2568,66792
2569,81561
2570,81562
2571,91421
2572,91422
2573,91821
2574,91822
2575,93961
2576,93962
2577,94241
2578,94242
2579,S3-0838-01
2580,S3-0847-01
2581,S3-0848-01
2582,S3-0850-01
2583,S3-0851-01
2584,S3-0852-01
2585,S3-0853-01
2586,S3-0856-01
2587,S3-0857-01
2588,S3-0858-01
2589,S3-0859-01
2590,84842
2591,94531
2592,94532
2593,94571
2594,94572
2595,90611
2596,90612
2597,24471
2598,24472
2599,92001
2600,92002
2601,20361
2602,20362
2603,52101
2604,52102
2605,58461
2606,58462
2607,32001
2608,32002
2609,54311
2610,54312
2611,52891
2612,52892
2613,91591
2614,91592
2615,58571
2616,58572
2617,54211
2618,54212
2619,4671
2620,4672
2621,94841
2622,94842
2623,90801
2624,90802
2625,89901
2626,89902
2627,S3-0860-01
2628,S3-0846-01
2629,S3-0849-01
2630,S3-0932-01
2631,S3-0864-01
2632,S3-0866-01
2633,S3-0867-01
2634,S3-0868-01
2635,S3-0872-01
2636,S3-0873-01
2637,S3-0874-01
2638,MI6_007
2639,23541
2640,23542
2641,21041
2642,21042
2643,23591
2644,23592
2645,70151
2646,70152
2647,76421
2648,76422
2649,24091
2650,24092
2651,78681
2652,78682
2653,67751
2654,67752
2655,96891
2656,96892
2657,7331
2658,7332
2659,22491
2660,22492
2661,5851
2662,5852
2663,64161
2664,64162
2665,22211
2666,22212
2667,19251
2668,19252
2669,68281
2670,68282
2671,10961
2672,10962
2673,76931
2674,76932
2675,S3-0876-01
2676,S3-0878-01
2677,S3-0882-01
2678,S3-0863-01
2679,S3-0883-01
2680,S3-0885-01
2681,S3-0888-01
2682,S3-0889-01
2683,S3-0890-01
2684,S3-0891-01
2685,S3-0894-01
2686,S3-0922-01
2687,85501
2688,85502
2689,23681
2690,23682
2691,19831
2692,19832
2693,21641
2694,21642
2695,69401
2696,69402
2697,4441
2698,4442
2699,22511
2700,22512
2701,92851
2702,92852
2703,78361
2704,78362
2705,83411
2706,83412
2707,2561
2708,2562
2709,95901
2710,95902
2711,91611
2712,91612
2713,57851
2714,57852
2715,89531
2716,89532
2717,87771
2718,87772
2719,83761
2720,83762
2721,9751
2722,9752
2723,S3-0893-01
2724,S3-0896-01
2725,S3-0895-01
2726,S3-0897-01
2727,S3-0901-01
2728,S3-0902-01
2729,S3-0904-01
2730,S3-0905-01
2731,S3-0906-01
2732,S3-0907-01
2733,S3-0908-01
2734,S3-0924-01
2735,16391
2736,16392
2737,11431
2738,11432
2739,69491
2740,69492
2741,18831
2742,18832
2743,2331
2744,2332
2745,16452
2746,16451
2747,26911
2748,26912
2749,65051
2750,65052
2751,70031
2752,70032
2753,79452
2754,79451
2755,78211
2756,78212
2757,87611
2758,87612
2759,22551
2760,22552
2761,13211
2762,13212
2763,20261
2764,20262
2765,12651
2766,12652
2767,53981
2768,53982
2769,S3-0927-01
2770,S3-0929-01
2771,S3-0865-01
2772,S3-0911-01
2773,S3-0912-01
2774,S3-0915-01
2775,S3-0879-01
2776,S3-0913-01
2777,S3-0909-01
2778,S3-0916-01
2779,S3-0920-01
2780,S3-0923-01
2781,S3-0921-01
2782,S3-0917-01
1690,59471
1691,59472
1692,59472
1637,59561
1638,59561
1639,59562
1640,59562
1711,59591
1712,59591
1713,59592
1714,59592
2891,60511
2892,60511
2893,60512
2894,60512
1854,64331
1855,64331
1856,64332
1857,64332
1760,64511
1761,64511
1762,64512
1763,64512
1981,65441
1982,65441
1983,65442
1984,65442
1602,65511
1603,65511
1604,65512
1605,65512
1744,66101
1745,66101
2895,66141
2896,66141
2897,66142
2819,S3-0941-01
2820,S3-0926-01
2821,S3-0946-01
2822,S3-0944-01
2823,S3-0949-01
2824,S3-0947-01
2825,S3-0955-01
2826,S3-0957-01
2827,S3-0958-01
2828,S3-0959-01
2829,S3-0960-01
2830,MI6_007
2898,66142
1828,66401
1829,66401
1830,66402
1831,66402
2975,66751
2976,66751
2977,66751
2978,66752
2979,66752
2980,66752
1441,66891
1442,66891
1443,66892
1444,66892
1541,67311
1542,67311
1543,67312
1544,67312
3023,67741
3024,67741
1493,67941
1494,67941
1495,67942
1496,67942
2935,68241
2936,68241
2937,68242
2938,68242
2847,68851
2848,68851
3192,68852
3358,68852
1832,70381
1833,70381
2866,57572
2867,S3-0962-01
2868,S3-0961-01
2869,S3-0963-01
2870,S3-0967-01
2871,S3-0969-01
2872,S3-0971-01
2873,S3-0972-01
2874,S3-0973-01
2875,S3-0976-01
2876,S3-0980-01
2877,S3-0983-01
2878,64561
1834,70382
1835,70382
1585,72031
1586,72031
1587,72032
1588,72032
3075,72062
3076,72062
1449,72421
1450,72421
1451,72422
1452,72422
3031,72501
3032,72501
1461,73361
1462,73361
1463,73362
1464,73362
1746,73651
1747,73651
1748,73652
1749,73652
3033,74522
3034,74522
3053,75371
3054,75371
1895,75481
1896,75481
1897,75482
1898,75482
1549,75812
1550,75812
1551,75812
1848,76171
2913,78861
2914,64002
2915,S3-0985-01
2916,S3-0984-01
2917,S3-0987-01
2918,S3-0988-01
2919,S3-0935-01
2920,S3-0880-01
2921,S3-0925-01
2922,SO-0300-01
2923,SO-0094-01
2924,SO-0112-01
2925,SO-0087-01
2926,52631
1849,76171
1850,76171
1851,76172
1852,76172
1853,76172
1658,78311
1659,78311
1600,78312
1601,78312
1660,78781
1661,78781
1662,78782
1663,78782
3055,78912
3056,78912
3047,79271
3048,79271
1843,79722
1844,79722
1811,79841
1812,79841
1941,79842
1942,79842
2997,80001
2998,80001
1556,80132
1557,80132
1558,80132
3071,81052
3072,81052
1740,81321
1741,81321
1742,81322
1743,81322
2961,23101
2962,59111
2963,SO-0089-01
2964,SO-0297-01
2965,SO-0179-01
2966,SO-0133-01
2967,SO-0096-01
2968,SO-0098-01
2969,SO-0097-01
2970,SO-0134-01
2971,SO-0100-01
2972,SO-0398-01
2973,SO-0298-01
2974,12032
1511,82301
1512,82301
1513,82302
1514,82302
1652,82901
1653,82901
1654,82901
1655,82902
1656,82902
1657,82902
1641,83001
1642,83001
1643,83001
3035,83171
3036,83171
2879,84501
2880,84501
2881,84502
2882,84502
3077,87001
3078,87001
1664,87261
1665,87261
1666,87262
1667,87262
1840,87281
1841,87281
1842,87281
3025,87311
3026,87311
3027,87312
3028,87312
1785,87871
1786,87871
3009,80371
3010,30521
3011,SO-0299-01
3012,SO-0099-01
3013,SO-0102-01
3014,SO-0180-01
3015,SO-0291-01
3016,SO-0153-01
3017,SO-0084-01
3018,SO-0086-01
3019,SO-0108-01
3020,SO-0145-01
3021,SO-0152-01
3022,MI6_007
1787,87871
1788,87871
1789,87872
1790,87872
699,88671
945,88671
700,88672
946,88672
2860,89161
2861,89161
2862,89162
2863,89162
1593,91301
1594,91301
1595,91302
1596,91302
1681,92011
1682,92011
1683,92012
1684,92012
1473,93941
1474,93941
1707,94271
1708,94271
1709,94272
1710,94272
2993,94482
2994,94482
2911,95312
2912,95312
3073,95331
3074,95331
1606,98451
1607,98451
1608,98452
1609,98452
3059,SO-0113-01
3060,SO-0116-01
3061,SO-0119-01
3062,SO-0120-01
3063,SO-0123-01
3064,SO-0121-01
3065,SO-0131-01
3066,SO-0189-01
3067,SO-0107-01
3068,SO-0141-01
3069,SO-0122-01
3070,52202
1040,99362
1597,99362
3041,99472
3042,99472
1985,99601
1986,99601
1987,99602
1988,99602
1921,99611
1922,99611
3081,66102
3082,58872
3083,71341
3084,94642
3085,5702
3086,69651
3087,21391
3088,87382
3089,67252
3090,68562
3091,5362
3092,81541
3093,7261
3094,87102
3095,25931
3096,80951
3097,70412
3098,79002
3099,54272
3100,88382
3101,15541
3102,3721
3103,3932
3104,59192
3105,19052
3106,64491
3107,SO-0125-01
3108,SO-0128-01
3109,SO-0697-01
3110,SO-0701-01
3111,SO-0705-01
3112,SO-0708-01
3113,SO-0709-01
3114,SO-0736-01
3115,SO-0679-02
3116,SO-0739-01
3117,SO-0740-01
3118,50011
3119,58411
3120,53581
3121,59601
3122,81482
3123,87752
3124,78761
3125,77521
3126,30262
3127,1011
3128,18741
3129,90482
3130,86511
3131,84141
3132,75191
3133,73691
3134,80181
3135,50422
3136,63751
3137,63752
3138,21901
3139,33191
1923,99612
3141,11031
3142,1351
3143,90342
3144,5091
3145,79872
3146,15802
3147,94041
3148,94042
3149,88961
3150,73502
3151,32421
3152,92691
3153,95311
1924,99612
3155,SO-0795-01
3156,SO-0752-01
3157,SO-0754-01
3158,SO-0755-01
3159,SO-0758-01
3160,SO-0761-01
3161,SO-0762-01
3162,SO-0769-01
3163,SO-0766-02
3164,SO-0772-01
3165,SO-0652-01
3166,26881
3167,20552
3168,91331
3169,4562
3170,8431
3171,52142
3172,52682
3173,54421
3174,57502
3175,1652
3176,99292
3177,2252
3178,26901
3179,32832
3180,50292
3181,58082
3182,59332
3183,32981
3184,51721
3185,53822
3186,96921
3187,32122
3188,32362
3189,6652
3190,52472
3191,79721
1598,99632
3193,1442
3194,10692
3195,57241
3196,80002
3197,23871
3198,24862
3199,81051
3200,87002
3201,16271
3202,83921
3203,MI6_007
3204,SO-0777-01
3205,SO-0779-01
3206,SO-0783-01
3207,SO-0784-01
3208,SO-0785-01
3209,SO-0801-01
3210,SO-0803-01
3211,SO-0789-01
3212,SO-0813-01
3213,SO-0808-01
3214,SO-0810-01
3215,SO-0841-01
3216,SO-0816-01
3217,SO-0832-01
3218,SO-0831-01
3219,SO-0833-01
3220,SO-0835-01
3221,SO-0837-01
3222,SO-0838-01
3223,SO-0839-01
3224,SO-0840-01
3225,SO-0843-01
3226,SO-0844-01
3227,SO-0846-01
3228,SO-0845-01
3229,SO-0850-01
3230,SO-0851-01
3231,SO-0853-01
3232,SO-0854-01
3233,SO-0868-01
3234,SO-0870-01
3235,SO-0871-01
3236,SO-0860-01
3237,SO-0763-01
3238,SO-0756-01
3239,SO-0746-01
3240,SO-0711-01
3241,SO-0712-01
3242,SO-0747-01
3243,SO-0715-01
3244,SO-0729-01
3245,SO-0721-01
3246,SO-0722-01
3247,SO-0771-01
3248,SO-0727-01
3249,SO-0665-01
3250,SO-0646-01
3251,SO-0863-01
3252,SO-0865-01
3253,SO-0674-01
3254,SO-0670-01
3255,SO-0700-01
3256,SO-0730-01
3257,SO-0671-01
3258,SO-0633-01
3259,SO-0731-01
3260,SO-0864-01
3261,SO-0631-01
3262,SO-0635-01
3263,SO-0637-01
3264,SO-0639-01
3265,SO-0640-01
3266,SO-0641-01
3267,SO-0643-01
3268,SO-0645-01
3269,SO-0765-01
3270,SO-0732-01
3271,SO-0733-01
3272,SO-0668-01
3273,SO-0749-01
3274,SO-0751-01
3275,SO-0735-01
3276,SO-0690-01
1599,99632
3286,1317106
3287,1317106
3291,1317106
3312,1317106
3288,1317109
3289,1317109
3295,1317109
3326,1317109
3284,1317201
3285,1317201
3313,1317212
3317,1317212
3278,1317303
3292,1317303
3296,1317303
3337,1317303
3294,1317305
3300,1317305
3316,1317305
3338,1317305
3340,1317316
3353,1317316
3339,1317317
3354,1317317
3283,1317403
3293,1317403
3297,1317403
3335,1317403
3298,1317406
3305,1317406
3299,1317408
3306,1317408
3277,1317412
3315,1317412
3327,1317412
3330,1317412
3279,1317503
3301,1317503
3309,1317503
3318,1317503
3280,1317504
3302,1317504
3319,1317504
3331,1317504
3304,1317505
3308,1317505
3342,1317505
3351,1317505
3324,1317510
3329,1317510
3332,1317510
3334,1317510
3290,1317513
3320,1317513
3325,1317513
3348,1317513
3322,1317515
3344,1317515
3347,1317515
3350,1317515
3303,1317604
3311,1317604
3333,1317610
3336,1317610
3282,1317611
3310,1317611
3314,1317611
3343,1317611
3323,1317613
3341,1317613
3345,1317613
3349,1317613
3281,1317614
3307,1317614
3321,1317614
3355,1317614
3328,1317615
3346,1317615
3352,1317615
3357,66521
3356,1317615