FlowJo ID,Run#
1,1
2,1
3,1
4,1
5,1
6,1
7,1
8,1
9,1
10,1
11,1
12,1
13,1
14,1
15,1
16,1
17,1
18,1
19,1
20,1
21,1
22,1
23,1
24,1
25,1
26,1
27,1
28,1
29,1
30,1
31,1
32,1
33,1
34,1
35,1
36,1
37,1
38,1
39,1
40,1
41,1
42,1
43,1
44,1
45,1
46,1
47,1
48,1
49,2
50,2
51,2
52,2
53,2
54,2
55,2
56,2
57,2
58,2
59,2
60,2
61,2
62,2
63,2
64,2
65,2
66,2
67,2
68,2
69,2
70,2
71,2
72,2
73,2
74,2
75,2
76,2
77,2
78,2
79,2
80,2
81,2
82,2
83,2
84,2
85,2
86,2
87,2
88,2
89,2
90,2
91,2
92,2
93,2
94,2
95,2
96,2
97,2
98,2
99,2
100,2
101,2
102,2
103,2
104,2
105,2
106,2
107,2
108,2
109,2
110,2
111,2
112,2
113,2
114,2
115,2
116,2
117,2
118,2
119,2
120,2
121,2
122,2
123,2
124,2
125,2
126,2
127,2
128,2
129,2
130,2
131,2
132,2
133,2
134,2
135,2
136,2
137,2
138,2
139,2
140,2
141,2
142,2
143,2
144,2
145,3
146,3
147,3
148,3
149,3
150,3
151,3
152,3
153,3
154,3
155,3
156,3
157,3
158,3
159,3
160,3
161,3
162,3
163,3
164,3
165,3
166,3
167,3
168,3
169,3
170,3
171,3
172,3
173,3
174,3
175,3
176,3
177,3
178,3
179,3
180,3
181,3
182,3
183,3
184,3
185,3
186,3
187,3
188,3
189,3
190,3
191,3
192,3
193,3
194,3
195,3
196,3
197,3
198,3
199,3
200,3
201,3
202,3
203,3
204,3
205,3
206,3
207,3
208,3
209,3
210,3
211,3
212,3
213,3
214,3
215,3
216,3
217,3
218,3
219,3
220,3
221,3
222,3
223,3
224,3
225,3
226,3
227,3
228,3
229,3
230,3
231,3
232,3
233,3
234,3
235,3
236,3
237,3
238,3
239,3
240,3
241,3
242,3
243,3
244,3
245,3
246,3
247,3
248,3
249,3
250,3
251,3
252,3
253,3
254,3
255,3
256,3
257,3
258,3
259,3
260,3
261,3
262,3
263,3
264,3
265,3
266,3
267,3
268,3
269,3
270,3
271,3
272,3
273,3
274,3
275,3
276,3
277,3
278,3
279,3
280,3
281,3
282,3
283,3
284,3
285,3
286,3
287,3
288,3
289,4
290,4
291,4
292,4
293,4
294,4
295,4
296,4
297,4
298,4
299,4
300,4
301,4
302,4
303,4
304,4
305,4
306,4
307,4
308,4
309,4
310,4
311,4
312,4
313,4
314,4
315,4
316,4
317,4
318,4
319,4
320,4
321,4
322,4
323,4
324,4
325,4
326,4
327,4
328,4
329,4
330,4
331,4
332,4
333,4
334,4
335,4
336,4
337,4
338,4
339,4
340,4
341,4
342,4
343,4
344,4
345,4
346,4
347,4
348,4
349,4
350,4
351,4
352,4
353,4
354,4
355,4
356,4
357,4
358,4
359,4
360,4
361,4
362,4
363,4
364,4
365,4
366,4
367,4
368,4
369,4
370,4
371,4
372,4
373,4
374,4
375,4
376,4
377,4
378,4
379,4
380,4
381,4
382,4
383,4
384,4
385,4
386,4
387,4
388,4
389,4
390,4
391,4
392,4
393,4
394,4
395,4
396,4
397,4
398,4
399,4
400,4
401,4
402,4
403,4
404,4
405,4
406,4
407,4
408,4
409,4
410,4
411,4
412,4
413,4
414,4
415,4
416,4
417,4
418,4
419,4
420,4
421,4
422,4
423,4
424,4
425,4
426,4
427,4
428,4
429,4
430,4
431,4
432,4
433,4
434,4
435,4
436,4
437,4
438,4
439,4
440,4
441,4
442,4
443,4
444,4
445,4
446,4
447,4
448,4
449,4
450,4
451,4
452,4
453,4
454,4
455,4
456,4
457,4
458,4
459,4
460,4
461,4
462,4
463,4
464,4
465,4
466,4
467,4
468,4
469,4
470,4
471,4
472,4
473,4
474,4
475,4
476,4
477,4
478,4
479,4
480,4
481,5
482,5
483,5
484,5
485,5
486,5
487,5
488,5
489,5
490,5
491,5
492,5
493,5
494,5
495,5
496,5
497,5
498,5
499,5
500,5
501,5
502,5
503,5
504,5
505,5
506,5
507,5
508,5
509,5
510,5
511,5
512,5
513,5
514,5
515,5
516,5
517,5
518,5
519,5
520,5
521,5
522,5
523,5
524,5
525,5
526,5
527,5
528,5
529,5
530,5
531,5
532,5
533,5
534,5
535,5
536,5
537,5
538,5
539,5
540,5
541,5
542,5
543,5
544,5
545,5
546,5
547,5
548,5
549,5
550,5
551,5
552,5
553,5
554,5
555,5
556,5
557,5
558,5
559,5
560,5
561,5
562,5
563,5
564,5
565,5
566,5
567,5
568,5
569,5
570,5
571,5
572,5
573,5
574,5
575,5
576,5
577,5
578,5
579,5
580,5
581,5
582,5
583,5
584,5
585,5
586,5
587,5
588,5
589,5
590,5
591,5
592,5
593,5
594,5
595,5
596,5
597,5
598,5
599,5
600,5
601,5
602,5
603,5
604,5
605,5
606,5
607,5
608,5
609,5
610,5
611,5
612,5
613,5
614,5
615,5
616,5
617,5
618,5
619,5
620,5
621,5
622,5
623,5
624,5
625,5
626,5
627,5
628,5
629,5
630,5
631,5
632,5
633,5
634,5
635,5
636,5
637,5
638,5
639,5
640,5
641,5
642,5
643,5
644,5
645,5
646,5
647,5
648,5
649,5
650,5
651,5
652,5
653,5
654,5
655,5
656,5
657,5
658,5
659,5
660,5
661,5
662,5
663,5
664,5
665,5
666,5
667,5
668,5
669,5
670,5
671,5
672,5
673,6
674,6
675,6
676,6
677,6
678,6
679,6
680,6
681,6
682,6
683,6
684,6
685,6
686,6
687,6
688,6
689,6
690,6
691,6
692,6
693,6
694,6
695,6
696,6
697,6
698,6
699,6
700,6
701,6
702,6
703,6
704,6
705,6
706,6
707,6
708,6
709,6
710,6
711,6
712,6
713,6
714,6
715,6
716,6
717,6
718,6
719,6
720,6
721,6
722,6
723,6
724,6
725,6
726,6
727,6
728,6
729,6
730,6
731,6
732,6
733,6
734,6
735,6
736,6
737,6
738,6
739,6
740,6
741,6
742,6
743,6
744,6
745,6
746,6
747,6
748,6
749,6
750,6
751,6
752,6
753,6
754,6
755,6
756,6
757,6
758,6
759,6
760,6
761,6
762,6
763,6
764,6
765,6
766,6
767,6
768,6
769,6
770,6
771,6
772,6
773,6
774,6
775,6
776,6
777,6
778,6
779,6
780,6
781,6
782,6
783,6
784,6
785,6
786,6
787,6
788,6
789,6
790,6
791,6
792,6
793,6
794,6
795,6
796,6
797,6
798,6
799,6
800,6
801,6
802,6
803,6
804,6
805,6
806,6
807,6
808,6
809,6
810,6
811,6
812,6
813,6
814,6
815,6
816,6
817,6
818,6
819,6
820,6
821,6
822,6
823,6
824,6
825,6
826,6
827,6
828,6
829,6
830,6
831,6
832,6
833,6
834,6
835,6
836,6
837,6
838,6
839,6
840,6
841,6
842,6
843,6
844,6
845,6
846,6
847,6
848,6
849,6
850,6
851,6
852,6
853,6
854,6
855,6
856,6
857,6
858,6
859,6
860,6
861,6
862,6
863,6
864,6
865,7
866,7
867,7
868,7
869,7
870,7
871,7
872,7
873,7
874,7
875,7
876,7
877,7
878,7
879,7
880,7
881,7
882,7
883,7
884,7
885,7
886,7
887,7
888,7
889,7
890,7
891,7
892,7
893,7
894,7
895,7
896,7
897,7
898,7
899,7
900,7
901,7
902,7
903,7
904,7
905,7
906,7
907,7
908,7
909,7
910,7
911,7
912,7
913,7
914,7
915,7
916,7
917,7
918,7
919,7
920,7
921,7
922,7
923,7
924,7
925,7
926,7
927,7
928,7
929,7
930,7
931,7
932,7
933,7
934,7
935,7
936,7
937,7
938,7
939,7
940,7
941,7
942,7
943,7
944,7
945,7
946,7
947,7
948,7
949,7
950,7
951,7
952,7
953,7
954,7
955,7
956,7
957,7
958,7
959,7
960,7
961,7
962,7
963,7
964,7
965,7
966,7
967,7
968,7
969,7
970,7
971,7
972,7
973,7
974,7
975,7
976,7
977,7
978,7
979,7
980,7
981,7
982,7
983,7
984,7
985,7
986,7
987,7
988,7
989,7
990,7
991,7
992,7
993,7
994,7
995,7
996,7
997,7
998,7
999,7
1000,7
1001,7
1002,7
1003,7
1004,7
1005,7
1006,7
1007,7
1008,7
1009,7
1010,7
1011,7
1012,7
1013,7
1014,7
1015,7
1016,7
1017,7
1018,7
1019,7
1020,7
1021,7
1022,7
1023,7
1024,7
1025,7
1026,7
1027,7
1028,7
1029,7
1030,7
1031,7
1032,7
1033,7
1034,7
1035,7
1036,7
1037,7
1038,7
1039,7
1040,7
1041,7
1042,7
1043,7
1044,7
1045,7
1046,7
1047,7
1048,7
1049,7
1050,7
1051,7
1052,7
1053,7
1054,7
1055,7
1056,7
1057,8
1058,8
1059,8
1060,8
1061,8
1062,8
1063,8
1064,8
1065,8
1066,8
1067,8
1068,8
1069,8
1070,8
1071,8
1072,8
1073,8
1074,8
1075,8
1076,8
1077,8
1078,8
1079,8
1080,8
1081,8
1082,8
1083,8
1084,8
1085,8
1086,8
1087,8
1088,8
1089,8
1090,8
1091,8
1092,8
1093,8
1094,8
1095,8
1096,8
1097,8
1098,8
1099,8
1100,8
1101,8
1102,8
1103,8
1104,8
1105,8
1106,8
1107,8
1108,8
1109,8
1110,8
1111,8
1112,8
1113,8
1114,8
1115,8
1116,8
1117,8
1118,8
1119,8
1120,8
1121,8
1122,8
1123,8
1124,8
1125,8
1126,8
1127,8
1128,8
1129,8
1130,8
1131,8
1132,8
1133,8
1134,8
1135,8
1136,8
1137,8
1138,8
1139,8
1140,8
1141,8
1142,8
1143,8
1144,8
1145,8
1146,8
1147,8
1148,8
1149,8
1150,8
1151,8
1152,8
1153,8
1154,8
1155,8
1156,8
1157,8
1158,8
1159,8
1160,8
1161,8
1162,8
1163,8
1164,8
1165,8
1166,8
1167,8
1168,8
1169,8
1170,8
1171,8
1172,8
1173,8
1174,8
1175,8
1176,8
1177,8
1178,8
1179,8
1180,8
1181,8
1182,8
1183,8
1184,8
1185,8
1186,8
1187,8
1188,8
1189,8
1190,8
1191,8
1192,8
1193,8
1194,8
1195,8
1196,8
1197,8
1198,8
1199,8
1200,8
1201,8
1202,8
1203,8
1204,8
1205,8
1206,8
1207,8
1208,8
1209,8
1210,8
1211,8
1212,8
1213,8
1214,8
1215,8
1216,8
1217,8
1218,8
1219,8
1220,8
1221,8
1222,8
1223,8
1224,8
1225,8
1226,8
1227,8
1228,8
1229,8
1230,8
1231,8
1232,8
1233,8
1234,8
1235,8
1236,8
1237,8
1238,8
1239,8
1240,8
1241,8
1242,8
1243,8
1244,8
1245,8
1246,8
1247,8
1248,8
1249,9
1250,9
1251,9
1252,9
1253,9
1254,9
1255,9
1256,9
1257,9
1258,9
1259,9
1260,9
1261,9
1262,9
1263,9
1264,9
1265,9
1266,9
1267,9
1268,9
1269,9
1270,9
1271,9
1272,9
1273,9
1274,9
1275,9
1276,9
1277,9
1278,9
1279,9
1280,9
1281,9
1282,9
1283,9
1284,9
1285,9
1286,9
1287,9
1288,9
1289,9
1290,9
1291,9
1292,9
1293,9
1294,9
1295,9
1296,9
1297,9
1298,9
1299,9
1300,9
1301,9
1302,9
1303,9
1304,9
1305,9
1306,9
1307,9
1308,9
1309,9
1310,9
1311,9
1312,9
1313,9
1314,9
1315,9
1316,9
1317,9
1318,9
1319,9
1320,9
1321,9
1322,9
1323,9
1324,9
1325,9
1326,9
1327,9
1328,9
1329,9
1330,9
1331,9
1332,9
1333,9
1334,9
1335,9
1336,9
1337,9
1338,9
1339,9
1340,9
1341,9
1342,9
1343,9
1344,9
1345,9
1346,9
1347,9
1348,9
1349,9
1350,9
1351,9
1352,9
1353,9
1354,9
1355,9
1356,9
1357,9
1358,9
1359,9
1360,9
1361,9
1362,9
1363,9
1364,9
1365,9
1366,9
1367,9
1368,9
1369,9
1370,9
1371,9
1372,9
1373,9
1374,9
1375,9
1376,9
1377,9
1378,9
1379,9
1380,9
1381,9
1382,9
1383,9
1384,9
1385,9
1386,9
1387,9
1388,9
1389,9
1390,9
1391,9
1392,9
1393,9
1394,9
1395,9
1396,9
1397,9
1398,9
1399,9
1400,9
1401,9
1402,9
1403,9
1404,9
1405,9
1406,9
1407,9
1408,9
1409,9
1410,9
1411,9
1412,9
1413,9
1414,9
1415,9
1416,9
1417,9
1418,9
1419,9
1420,9
1421,9
1422,9
1423,9
1424,9
1425,9
1426,9
1427,9
1428,9
1429,9
1430,9
1431,9
1432,9
1433,9
1434,9
1435,9
1436,9
1437,9
1438,9
1439,9
1440,9
1441,10
1442,10
1443,10
1444,10
1445,10
1446,10
1447,10
1448,10
1449,10
1450,10
1451,10
1452,10
1453,10
1454,10
1455,10
1456,10
1457,10
1458,10
1459,10
1460,10
1461,10
1462,10
1463,10
1464,10
1465,10
1466,10
1467,10
1468,10
1469,10
1470,10
1471,10
1472,10
1473,10
1474,10
1475,10
1476,10
1477,10
1478,10
1479,10
1480,10
1481,10
1482,10
1483,10
1484,10
1485,10
1486,10
1487,10
1488,10
1489,10
1490,10
1491,10
1492,10
1493,10
1494,10
1495,10
1496,10
1497,10
1498,10
1499,10
1500,10
1501,10
1502,10
1503,10
1504,10
1505,10
1506,10
1507,10
1508,10
1509,10
1510,10
1511,10
1512,10
1513,10
1514,10
1515,10
1516,10
1517,10
1518,10
1519,10
1520,10
1521,10
1522,10
1523,10
1524,10
1525,10
1526,10
1527,10
1528,10
1529,10
1530,10
1531,10
1532,10
1533,10
1534,10
1535,10
1536,10
1537,10
1538,10
1539,10
1540,10
1541,10
1542,10
1543,10
1544,10
1545,10
1546,10
1547,10
1548,10
1549,10
1550,10
1551,10
1552,10
1553,10
1554,10
1555,10
1556,10
1557,10
1558,10
1559,10
1560,10
1561,10
1562,10
1563,10
1564,10
1565,10
1566,10
1567,10
1568,10
1569,10
1570,10
1571,10
1572,10
1573,10
1574,10
1575,10
1576,10
1577,10
1578,10
1579,10
1580,10
1581,10
1582,10
1583,10
1584,10
1585,10
1586,10
1587,10
1588,10
1589,10
1590,10
1591,10
1592,10
1593,10
1594,10
1595,10
1596,10
1597,10
1598,10
1599,10
1600,10
1601,10
1602,10
1603,10
1604,10
1605,10
1606,10
1607,10
1608,10
1609,10
1610,10
1611,10
1612,10
1613,10
1614,10
1615,10
1616,10
1617,10
1618,10
1619,10
1620,10
1621,10
1622,10
1623,10
1624,10
1625,10
1626,10
1627,10
1628,10
1629,10
1630,10
1631,10
1632,10
1633,11
1634,11
1635,11
1636,11
1637,11
1638,11
1639,11
1640,11
1641,11
1642,11
1643,11
1644,11
1645,11
1646,11
1647,11
1648,11
1649,11
1650,11
1651,11
1652,11
1653,11
1654,11
1655,11
1656,11
1657,11
1658,11
1659,11
1660,11
1661,11
1662,11
1663,11
1664,11
1665,11
1666,11
1667,11
1668,11
1669,11
1670,11
1671,11
1672,11
1673,11
1674,11
1675,11
1676,11
1677,11
1678,11
1679,11
1680,11
1681,11
1682,11
1683,11
1684,11
1685,11
1686,11
1687,11
1688,11
1689,11
1690,11
1691,11
1692,11
1693,11
1694,11
1695,11
1696,11
1697,11
1698,11
1699,11
1700,11
1701,11
1702,11
1703,11
1704,11
1705,11
1706,11
1707,11
1708,11
1709,11
1710,11
1711,11
1712,11
1713,11
1714,11
1715,11
1716,11
1717,11
1718,11
1719,11
1720,11
1721,11
1722,11
1723,11
1724,11
1725,11
1726,11
1727,11
1728,11
1729,11
1730,11
1731,11
1732,11
1733,11
1734,11
1735,11
1736,11
1737,11
1738,11
1739,11
1740,11
1741,11
1742,11
1743,11
1744,11
1745,11
1746,11
1747,11
1748,11
1749,11
1750,11
1751,11
1752,11
1753,11
1754,11
1755,11
1756,11
1757,11
1758,11
1759,11
1760,11
1761,11
1762,11
1763,11
1764,11
1765,11
1766,11
1767,11
1768,11
1769,11
1770,11
1771,11
1772,11
1773,11
1774,11
1775,11
1776,11
1777,11
1778,11
1779,11
1780,11
1781,11
1782,11
1783,11
1784,11
1785,11
1786,11
1787,11
1788,11
1789,11
1790,11
1791,11
1792,11
1793,11
1794,11
1795,11
1796,11
1797,11
1798,11
1799,11
1800,11
1801,11
1802,11
1803,11
1804,11
1805,11
1806,11
1807,11
1808,11
1809,11
1810,11
1811,11
1812,11
1813,11
1814,11
1815,11
1816,11
1817,11
1818,11
1819,11
1820,11
1821,11
1822,11
1823,11
1824,11
1825,12
1826,12
1827,12
1828,12
1829,12
1830,12
1831,12
1832,12
1833,12
1834,12
1835,12
1836,12
1837,12
1838,12
1839,12
1840,12
1841,12
1842,12
1843,12
1844,12
1845,12
1846,12
1847,12
1848,12
1849,12
1850,12
1851,12
1852,12
1853,12
1854,12
1855,12
1856,12
1857,12
1858,12
1859,12
1860,12
1861,12
1862,12
1863,12
1864,12
1865,12
1866,12
1867,12
1868,12
1869,12
1870,12
1871,12
1872,12
1873,12
1874,12
1875,12
1876,12
1877,12
1878,12
1879,12
1880,12
1881,12
1882,12
1883,12
1884,12
1885,12
1886,12
1887,12
1888,12
1889,12
1890,12
1891,12
1892,12
1893,12
1894,12
1895,12
1896,12
1897,12
1898,12
1899,12
1900,12
1901,12
1902,12
1903,12
1904,12
1905,12
1906,12
1907,12
1908,12
1909,12
1910,12
1911,12
1912,12
1913,12
1914,12
1915,12
1916,12
1917,12
1918,12
1919,12
1920,12
1921,12
1922,12
1923,12
1924,12
1925,12
1926,12
1927,12
1928,12
1929,12
1930,12
1931,12
1932,12
1933,12
1934,12
1935,12
1936,12
1937,12
1938,12
1939,12
1940,12
1941,12
1942,12
1943,12
1944,12
1945,12
1946,12
1947,12
1948,12
1949,12
1950,12
1951,12
1952,12
1953,12
1954,12
1955,12
1956,12
1957,12
1958,12
1959,12
1960,12
1961,12
1962,12
1963,12
1964,12
1965,12
1966,12
1967,12
1968,12
1969,12
1970,12
1971,12
1972,12
1973,12
1974,12
1975,12
1976,12
1977,12
1978,12
1979,12
1980,12
1981,12
1982,12
1983,12
1984,12
1985,12
1986,12
1987,12
1988,12
1989,12
1990,12
1991,12
1992,12
1993,12
1994,12
1995,12
1996,12
1997,12
1998,12
1999,12
2000,12
2001,12
2002,12
2003,12
2004,12
2005,12
2006,12
2007,12
2008,12
2009,12
2010,12
2011,12
2012,12
2013,12
2014,12
2015,12
2016,12
2017,13
2018,13
2019,13
2020,13
2021,13
2022,13
2023,13
2024,13
2025,13
2026,13
2027,13
2028,13
2029,13
2030,13
2031,13
2032,13
2033,13
2034,13
2035,13
2036,13
2037,13
2038,13
2039,13
2040,13
2041,13
2042,13
2043,13
2044,13
2045,13
2046,13
2047,13
2048,13
2049,13
2050,13
2051,13
2052,13
2053,13
2054,13
2055,13
2056,13
2057,13
2058,13
2059,13
2060,13
2061,13
2062,13
2063,13
2064,13
2065,13
2066,13
2067,13
2068,13
2069,13
2070,13
2071,13
2072,13
2073,13
2074,13
2075,13
2076,13
2077,13
2078,13
2079,13
2080,13
2081,13
2082,13
2083,13
2084,13
2085,13
2086,13
2087,13
2088,13
2089,13
2090,13
2091,13
2092,13
2093,13
2094,13
2095,13
2096,13
2097,13
2098,13
2099,13
2100,13
2101,13
2102,13
2103,13
2104,13
2105,13
2106,13
2107,13
2108,13
2109,13
2110,13
2111,13
2112,13
2113,13
2114,13
2115,13
2116,13
2117,13
2118,13
2119,13
2120,13
2121,13
2122,13
2123,13
2124,13
2125,13
2126,13
2127,13
2128,13
2129,13
2130,13
2131,13
2132,13
2133,13
2134,13
2135,13
2136,13
2137,13
2138,13
2139,13
2140,13
2141,13
2142,13
2143,13
2144,13
2145,13
2146,13
2147,13
2148,13
2149,13
2150,13
2151,13
2152,13
2153,13
2154,13
2155,13
2156,13
2157,13
2158,13
2159,13
2160,13
2161,13
2162,13
2163,13
2164,13
2165,13
2166,13
2167,13
2168,13
2169,13
2170,13
2171,13
2172,13
2173,13
2174,13
2175,13
2176,13
2177,13
2178,13
2179,13
2180,13
2181,13
2182,13
2183,13
2184,13
2185,13
2186,13
2187,13
2188,13
2189,13
2190,13
2191,13
2192,13
2193,13
2194,13
2195,13
2196,13
2197,13
2198,13
2199,13
2200,13
2201,13
2202,13
2203,13
2204,13
2205,13
2206,13
2207,13
2208,13
2209,14
2210,14
2211,14
2212,14
2213,14
2214,14
2215,14
2216,14
2217,14
2218,14
2219,14
2220,14
2221,14
2222,14
2223,14
2224,14
2225,14
2226,14
2227,14
2228,14
2229,14
2230,14
2231,14
2232,14
2233,14
2234,14
2235,14
2236,14
2237,14
2238,14
2239,14
2240,14
2241,14
2242,14
2243,14
2244,14
2245,14
2246,14
2247,14
2248,14
2249,14
2250,14
2251,14
2252,14
2253,14
2254,14
2255,14
2256,14
2257,14
2258,14
2259,14
2260,14
2261,14
2262,14
2263,14
2264,14
2265,14
2266,14
2267,14
2268,14
2269,14
2270,14
2271,14
2272,14
2273,14
2274,14
2275,14
2276,14
2277,14
2278,14
2279,14
2280,14
2281,14
2282,14
2283,14
2284,14
2285,14
2286,14
2287,14
2288,14
2289,14
2290,14
2291,14
2292,14
2293,14
2294,14
2295,14
2296,14
2297,14
2298,14
2299,14
2300,14
2301,14
2302,14
2303,14
2304,14
2305,14
2306,14
2307,14
2308,14
2309,14
2310,14
2311,14
2312,14
2313,14
2314,14
2315,14
2316,14
2317,14
2318,14
2319,14
2320,14
2321,14
2322,14
2323,14
2324,14
2325,14
2326,14
2327,14
2328,14
2329,14
2330,14
2331,14
2332,14
2333,14
2334,14
2335,14
2336,14
2337,14
2338,14
2339,14
2340,14
2341,14
2342,14
2343,14
2344,14
2345,14
2346,14
2347,14
2348,14
2349,14
2350,14
2351,14
2352,14
2353,14
2354,14
2355,14
2356,14
2357,14
2358,14
2359,14
2360,14
2361,14
2362,14
2363,14
2364,14
2365,14
2366,14
2367,14
2368,14
2369,14
2370,14
2371,14
2372,14
2373,14
2374,14
2375,14
2376,14
2377,14
2378,14
2379,14
2380,14
2381,14
2382,14
2383,14
2384,14
2385,14
2386,14
2387,14
2388,14
2389,14
2390,14
2391,14
2392,14
2393,14
2394,14
2395,14
2396,14
2397,14
2398,14
2399,14
2400,14
2401,15
2402,15
2403,15
2404,15
2405,15
2406,15
2407,15
2408,15
2409,15
2410,15
2411,15
2412,15
2413,15
2414,15
2415,15
2416,15
2417,15
2418,15
2419,15
2420,15
2421,15
2422,15
2423,15
2424,15
2425,15
2426,15
2427,15
2428,15
2429,15
2430,15
2431,15
2432,15
2433,15
2434,15
2435,15
2436,15
2437,15
2438,15
2439,15
2440,15
2441,15
2442,15
2443,15
2444,15
2445,15
2446,15
2447,15
2448,15
2449,15
2450,15
2451,15
2452,15
2453,15
2454,15
2455,15
2456,15
2457,15
2458,15
2459,15
2460,15
2461,15
2462,15
2463,15
2464,15
2465,15
2466,15
2467,15
2468,15
2469,15
2470,15
2471,15
2472,15
2473,15
2474,15
2475,15
2476,15
2477,15
2478,15
2479,15
2480,15
2481,15
2482,15
2483,15
2484,15
2485,15
2486,15
2487,15
2488,15
2489,15
2490,15
2491,15
2492,15
2493,15
2494,15
2495,15
2496,15
2497,15
2498,15
2499,15
2500,15
2501,15
2502,15
2503,15
2504,15
2505,15
2506,15
2507,15
2508,15
2509,15
2510,15
2511,15
2512,15
2513,15
2514,15
2515,15
2516,15
2517,15
2518,15
2519,15
2520,15
2521,15
2522,15
2523,15
2524,15
2525,15
2526,15
2527,15
2528,15
2529,15
2530,15
2531,15
2532,15
2533,15
2534,15
2535,15
2536,15
2537,15
2538,15
2539,15
2540,15
2541,15
2542,15
2543,15
2544,15
2545,15
2546,15
2547,15
2548,15
2549,15
2550,15
2551,15
2552,15
2553,15
2554,15
2555,15
2556,15
2557,15
2558,15
2559,15
2560,15
2561,15
2562,15
2563,15
2564,15
2565,15
2566,15
2567,15
2568,15
2569,15
2570,15
2571,15
2572,15
2573,15
2574,15
2575,15
2576,15
2577,15
2578,15
2579,15
2580,15
2581,15
2582,15
2583,15
2584,15
2585,15
2586,15
2587,15
2588,15
2589,15
2590,15
2591,16
2592,16
2593,16
2594,16
2595,16
2596,16
2597,16
2598,16
2599,16
2600,16
2601,16
2602,16
2603,16
2604,16
2605,16
2606,16
2607,16
2608,16
2609,16
2610,16
2611,16
2612,16
2613,16
2614,16
2615,16
2616,16
2617,16
2618,16
2619,16
2620,16
2621,16
2622,16
2623,16
2624,16
2625,16
2626,16
2627,16
2628,16
2629,16
2630,16
2631,16
2632,16
2633,16
2634,16
2635,16
2636,16
2637,16
2638,16
2639,16
2640,16
2641,16
2642,16
2643,16
2644,16
2645,16
2646,16
2647,16
2648,16
2649,16
2650,16
2651,16
2652,16
2653,16
2654,16
2655,16
2656,16
2657,16
2658,16
2659,16
2660,16
2661,16
2662,16
2663,16
2664,16
2665,16
2666,16
2667,16
2668,16
2669,16
2670,16
2671,16
2672,16
2673,16
2674,16
2675,16
2676,16
2677,16
2678,16
2679,16
2680,16
2681,16
2682,16
2683,16
2684,16
2685,16
2686,16
2687,16
2688,16
2689,16
2690,16
2691,16
2692,16
2693,16
2694,16
2695,16
2696,16
2697,16
2698,16
2699,16
2700,16
2701,16
2702,16
2703,16
2704,16
2705,16
2706,16
2707,16
2708,16
2709,16
2710,16
2711,16
2712,16
2713,16
2714,16
2715,16
2716,16
2717,16
2718,16
2719,16
2720,16
2721,16
2722,16
2723,16
2724,16
2725,16
2726,16
2727,16
2728,16
2729,16
2730,16
2731,16
2732,16
2733,16
2734,16
2735,16
2736,16
2737,16
2738,16
2739,16
2740,16
2741,16
2742,16
2743,16
2744,16
2745,16
2746,16
2747,16
2748,16
2749,16
2750,16
2751,16
2752,16
2753,16
2754,16
2755,16
2756,16
2757,16
2758,16
2759,16
2760,16
2761,16
2762,16
2763,16
2764,16
2765,16
2766,16
2767,16
2768,16
2769,16
2770,16
2771,16
2772,16
2773,16
2774,16
2775,16
2776,16
2777,16
2778,16
2779,16
2780,16
2781,16
2782,16
2783,17
2784,17
2785,17
2786,17
2787,17
2788,17
2789,17
2790,17
2791,17
2792,17
2793,17
2794,17
2795,17
2796,17
2797,17
2798,17
2799,17
2800,17
2801,17
2802,17
2803,17
2804,17
2805,17
2806,17
2807,17
2808,17
2809,17
2810,17
2811,17
2812,17
2813,17
2814,17
2815,17
2816,17
2817,17
2818,17
2819,17
2820,17
2821,17
2822,17
2823,17
2824,17
2825,17
2826,17
2827,17
2828,17
2829,17
2830,17
2831,17
2832,17
2833,17
2834,17
2835,17
2836,17
2837,17
2838,17
2839,17
2840,17
2841,17
2842,17
2843,17
2844,17
2845,17
2846,17
2847,17
2848,17
2849,17
2850,17
2851,17
2852,17
2853,17
2854,17
2855,17
2856,17
2857,17
2858,17
2859,17
2860,17
2861,17
2862,17
2863,17
2864,17
2865,17
2866,17
2867,17
2868,17
2869,17
2870,17
2871,17
2872,17
2873,17
2874,17
2875,17
2876,17
2877,17
2878,17
2879,17
2880,17
2881,17
2882,17
2883,17
2884,17
2885,17
2886,17
2887,17
2888,17
2889,17
2890,17
2891,17
2892,17
2893,17
2894,17
2895,17
2896,17
2897,17
2898,17
2899,17
2900,17
2901,17
2902,17
2903,17
2904,17
2905,17
2906,17
2907,17
2908,17
2909,17
2910,17
2911,17
2912,17
2913,17
2914,17
2915,17
2916,17
2917,17
2918,17
2919,17
2920,17
2921,17
2922,17
2923,17
2924,17
2925,17
2926,17
2927,17
2928,17
2929,17
2930,17
2931,17
2932,17
2933,17
2934,17
2935,17
2936,17
2937,17
2938,17
2939,17
2940,17
2941,17
2942,17
2943,17
2944,17
2945,17
2946,17
2947,17
2948,17
2949,17
2950,17
2951,17
2952,17
2953,17
2954,17
2955,17
2956,17
2957,17
2958,17
2959,17
2960,17
2961,17
2962,17
2963,17
2964,17
2965,17
2966,17
2967,17
2968,17
2969,17
2970,17
2971,17
2972,17
2973,17
2974,17
2975,18
2976,18
2977,18
2978,18
2979,18
2980,18
2981,18
2982,18
2983,18
2984,18
2985,18
2986,18
2987,18
2988,18
2989,18
2990,18
2991,18
2992,18
2993,18
2994,18
2995,18
2996,18
2997,18
2998,18
2999,18
3000,18
3001,18
3002,18
3003,18
3004,18
3005,18
3006,18
3007,18
3008,18
3009,18
3010,18
3011,18
3012,18
3013,18
3014,18
3015,18
3016,18
3017,18
3018,18
3019,18
3020,18
3021,18
3022,18
3023,18
3024,18
3025,18
3026,18
3027,18
3028,18
3029,18
3030,18
3031,18
3032,18
3033,18
3034,18
3035,18
3036,18
3037,18
3038,18
3039,18
3040,18
3041,18
3042,18
3043,18
3044,18
3045,18
3046,18
3047,18
3048,18
3049,18
3050,18
3051,18
3052,18
3053,18
3054,18
3055,18
3056,18
3057,18
3058,18
3059,18
3060,18
3061,18
3062,18
3063,18
3064,18
3065,18
3066,18
3067,18
3068,18
3069,18
3070,18
3071,18
3072,18
3073,18
3074,18
3075,18
3076,18
3077,18
3078,18
3079,18
3080,18
3081,18
3082,18
3083,18
3084,18
3085,18
3086,18
3087,18
3088,18
3089,18
3090,18
3091,18
3092,18
3093,18
3094,18
3095,18
3096,18
3097,18
3098,18
3099,18
3100,18
3101,18
3102,18
3103,18
3104,18
3105,18
3106,18
3107,18
3108,18
3109,18
3110,18
3111,18
3112,18
3113,18
3114,18
3115,18
3116,18
3117,18
3118,18
3119,18
3120,18
3121,18
3122,18
3123,18
3124,18
3125,18
3126,18
3127,18
3128,18
3129,18
3130,18
3131,18
3132,18
3133,18
3134,18
3135,18
3136,18
3137,18
3138,18
3139,18
3140,18
3141,18
3142,18
3143,18
3144,18
3145,18
3146,18
3147,18
3148,18
3149,18
3150,18
3151,18
3152,18
3153,18
3154,18
3155,18
3156,18
3157,18
3158,18
3159,18
3160,18
3161,18
3162,18
3163,18
3164,18
3165,18
3166,18
3167,19
3168,19
3169,19
3170,19
3171,19
3172,19
3173,19
3174,19
3175,19
3176,19
3177,19
3178,19
3179,19
3180,19
3181,19
3182,19
3183,19
3184,19
3185,19
3186,19
3187,19
3188,19
3189,19
3190,19
3191,19
3192,19
3193,19
3194,19
3195,19
3196,19
3197,19
3198,19
3199,19
3200,19
3201,19
3202,19
3203,19
3204,19
3205,19
3206,19
3207,19
3208,19
3209,19
3210,19
3211,19
3212,19
3213,19
3214,19
3215,19
3216,19
3217,19
3218,19
3219,19
3220,19
3221,19
3222,19
3223,19
3224,19
3225,19
3226,19
3227,19
3228,19
3229,19
3230,19
3231,19
3232,19
3233,19
3234,19
3235,19
3236,19
3237,19
3238,19
3239,19
3240,19
3241,19
3242,19
3243,19
3244,19
3245,19
3246,19
3247,19
3248,19
3249,19
3250,19
3251,19
3252,19
3253,19
3254,19
3255,19
3256,19
3257,19
3258,19
3259,19
3260,19
3261,19
3262,19
3263,19
3264,19
3265,19
3266,19
3267,19
3268,19
3269,19
3270,19
3271,19
3272,19
3273,19
3274,19
3275,19
3276,19
3277,19
3278,19
3279,19
3280,19
3281,19
3282,19
3283,19
3284,19
3285,19
3286,19
3287,19
3288,19
3289,19
3290,19
3291,19
3292,19
3293,19
3294,19
3295,19
3296,19
3297,19
3298,19
3299,19
3300,19
3301,19
3302,19
3303,19
3304,19
3305,19
3306,19
3307,19
3308,19
3309,19
3310,19
3311,19
3312,19
3313,19
3314,19
3315,19
3316,19
3317,19
3318,19
3319,19
3320,19
3321,19
3322,19
3323,19
3324,19
3325,19
3326,19
3327,19
3328,19
3329,19
3330,19
3331,19
3332,19
3333,19
3334,19
3335,19
3336,19
3337,19
3338,19
3339,19
3340,19
3341,19
3342,19
3343,19
3344,19
3345,19
3346,19
3347,19
3348,19
3349,19
3350,19
3351,19
3352,19
3353,19
3354,19
3355,19
3356,19
3357,19
3358,19